/* XPM */
static char * icon_layout_floats[] = {
"20 20 2 1 ",
"  c None",
". c #707070",
"                    ",
"                    ",
"                    ",
"                    ",
"                    ",
".............       ",
".............       ",
".............       ",
".............       ",
".............  .....",
".............  .....",
".............  .....",
"               .....",
"               .....",
"       .............",
"       .............",
"                    ",
"                    ",
"                    ",
"                    "}





