/* XPM */
static char * icon_triangle_down[] = {
"20 20 2 1 ",
"  c None",
". c #707070",
"                    ",
"                    ",
"                    ",
"                    ",
"                    ",
"                    ",
"                    ",
"     .........      ",
"      .......       ",
"       .....        ",
"        ...         ",
"         .          ",
"                    ",
"                    ",
"                    ",
"                    ",
"                    ",
"                    ",
"                    ",
"                    "}





